{
	"@type": "CustomDataFormImportExportView",
	"name": "QC Range",
	"type": "STUDY",
	"externalId": "QC Range",
	"useDefault": true,
	"showAttachments": false,
	"allowReadOnlyRecords": false,
	"attachmentsLabel": "Attachments",
	"createSqbDataSource": true,
	"multipleEntries": true,
	"storeComments": true,
	"allowRecordLock": false,
	"allowEditWithoutEntityPerms": false,
	"columnNum": 2,
	"fields": [{
		"name": "Control Name",
		"externalId": "Control Name",
		"commentsDisplayType": "AS_TOOLTIP",
		"containsPHI": false,
		"defaultToCurrent": false,
		"upperBound": "250",
		"addNewValuesToList": true,
		"fieldType": "TEXT",
		"required": false,
		"title": false
	}, {
		"name": "Control Expiration Date",
		"externalId": "Control Expiration Date",
		"commentsDisplayType": "AS_TOOLTIP",
		"containsPHI": false,
		"defaultToCurrent": false,
		"addNewValuesToList": true,
		"fieldType": "DATE",
		"required": false,
		"title": false
	}, {
		"name": "Control Lot #",
		"externalId": "Control Lot #",
		"commentsDisplayType": "AS_TOOLTIP",
		"containsPHI": false,
		"defaultToCurrent": false,
		"upperBound": "250",
		"addNewValuesToList": true,
		"fieldType": "TEXT",
		"required": false,
		"title": false
	}, {
		"name": "Method",
		"externalId": "Method/Panel",
		"commentsDisplayType": "AS_TOOLTIP",
		"containsPHI": false,
		"defaultToCurrent": false,
		"upperBound": "250",
		"addNewValuesToList": true,
		"fieldType": "TEXT",
		"required": false,
		"title": false
	}, {
		"name": "Panel",
		"externalId": "Panel",
		"commentsDisplayType": "AS_TOOLTIP",
		"containsPHI": false,
		"defaultToCurrent": false,
		"upperBound": "250",
		"addNewValuesToList": true,
		"fieldType": "TEXT",
		"required": false,
		"title": false
	}, {
		"name": "Range",
		"externalId": "Range",
		"commentsDisplayType": "AS_TOOLTIP",
		"containsPHI": false,
		"defaultToCurrent": false,
		"childForm": {
			"formExternalId": "Flow QC Range",
			"name": "Flow QC Range"
		},
		"addNewValuesToList": true,
		"fieldType": "CHILD_FORM",
		"required": false,
		"title": false
	}],
	"displayForNewRecord": false
}